[gd_scene load_steps=7 format=3 uid="uid://cdoo41eomxklg"]

[ext_resource type="PackedScene" uid="uid://chos6goird47i" path="res://Player.tscn" id="2_mxopq"]
[ext_resource type="PackedScene" uid="uid://dreu30jmf52fj" path="res://coin.tscn" id="3_78v5b"]
[ext_resource type="PackedScene" uid="uid://dqn8fvm6q4ukx" path="res://newPlatform.tscn" id="4_03q7t"]

[sub_resource type="PhysicsMaterial" id="PhysicsMaterial_cxt82"]

[sub_resource type="TileSetAtlasSource" id="TileSetAtlasSource_2m4ys"]
texture_region_size = Vector2i(18, 18)
0:0/0 = 0
0:0/0/physics_layer_0/linear_velocity = Vector2(0, 0)
0:0/0/physics_layer_0/angular_velocity = 0.0
1:0/0 = 0
1:0/0/physics_layer_0/linear_velocity = Vector2(0, 0)
1:0/0/physics_layer_0/angular_velocity = 0.0
1:0/0/physics_layer_0/polygon_0/points = PackedVector2Array(-7.125, -6.875, 9, -7.125, 9, 7, -6.75, 6.875)
2:0/0 = 0
2:0/0/physics_layer_0/linear_velocity = Vector2(0, 0)
2:0/0/physics_layer_0/angular_velocity = 0.0
2:0/0/physics_layer_0/polygon_0/points = PackedVector2Array(-9, -6.875, 9, -7.125, 9, 7.125, -9, 7.25)
3:0/0 = 0
3:0/0/physics_layer_0/linear_velocity = Vector2(0, 0)
3:0/0/physics_layer_0/angular_velocity = 0.0
3:0/0/physics_layer_0/polygon_0/points = PackedVector2Array(-1.375, -7, 6.875, -7, 7, 6.875, -9, 6.875, -9, 0.625, -9, -2.25, -9, -7)
4:0/0 = 0
4:0/0/physics_layer_0/linear_velocity = Vector2(0, 0)
4:0/0/physics_layer_0/angular_velocity = 0.0
5:0/0 = 0
5:0/0/physics_layer_0/linear_velocity = Vector2(0, 0)
5:0/0/physics_layer_0/angular_velocity = 0.0
6:0/0 = 0
6:0/0/physics_layer_0/linear_velocity = Vector2(0, 0)
6:0/0/physics_layer_0/angular_velocity = 0.0
7:0/0 = 0
7:0/0/physics_layer_0/linear_velocity = Vector2(0, 0)
7:0/0/physics_layer_0/angular_velocity = 0.0
8:0/0 = 0
8:0/0/physics_layer_0/linear_velocity = Vector2(0, 0)
8:0/0/physics_layer_0/angular_velocity = 0.0
9:0/0 = 0
9:0/0/physics_layer_0/linear_velocity = Vector2(0, 0)
9:0/0/physics_layer_0/angular_velocity = 0.0
10:0/0 = 0
10:0/0/physics_layer_0/linear_velocity = Vector2(0, 0)
10:0/0/physics_layer_0/angular_velocity = 0.0
11:0/0 = 0
11:0/0/physics_layer_0/linear_velocity = Vector2(0, 0)
11:0/0/physics_layer_0/angular_velocity = 0.0
12:0/0 = 0
12:0/0/physics_layer_0/linear_velocity = Vector2(0, 0)
12:0/0/physics_layer_0/angular_velocity = 0.0
13:0/0 = 0
13:0/0/physics_layer_0/linear_velocity = Vector2(0, 0)
13:0/0/physics_layer_0/angular_velocity = 0.0
14:0/0 = 0
14:0/0/physics_layer_0/linear_velocity = Vector2(0, 0)
14:0/0/physics_layer_0/angular_velocity = 0.0
15:0/0 = 0
15:0/0/physics_layer_0/linear_velocity = Vector2(0, 0)
15:0/0/physics_layer_0/angular_velocity = 0.0
16:0/0 = 0
16:0/0/physics_layer_0/linear_velocity = Vector2(0, 0)
16:0/0/physics_layer_0/angular_velocity = 0.0
17:0/0 = 0
17:0/0/physics_layer_0/linear_velocity = Vector2(0, 0)
17:0/0/physics_layer_0/angular_velocity = 0.0
18:0/0 = 0
18:0/0/physics_layer_0/linear_velocity = Vector2(0, 0)
18:0/0/physics_layer_0/angular_velocity = 0.0
19:0/0 = 0
19:0/0/physics_layer_0/linear_velocity = Vector2(0, 0)
19:0/0/physics_layer_0/angular_velocity = 0.0
0:1/0 = 0
0:1/0/physics_layer_0/linear_velocity = Vector2(0, 0)
0:1/0/physics_layer_0/angular_velocity = 0.0
1:1/0 = 0
1:1/0/physics_layer_0/linear_velocity = Vector2(0, 0)
1:1/0/physics_layer_0/angular_velocity = 0.0
2:1/0 = 0
2:1/0/physics_layer_0/linear_velocity = Vector2(0, 0)
2:1/0/physics_layer_0/angular_velocity = 0.0
2:1/0/physics_layer_0/polygon_0/points = PackedVector2Array(-9, -9, 9, -9, 9, 9, -9, 9, -9, -9)
3:1/0 = 0
3:1/0/physics_layer_0/linear_velocity = Vector2(0, 0)
3:1/0/physics_layer_0/angular_velocity = 0.0
4:1/0 = 0
4:1/0/physics_layer_0/linear_velocity = Vector2(0, 0)
4:1/0/physics_layer_0/angular_velocity = 0.0
5:1/0 = 0
5:1/0/physics_layer_0/linear_velocity = Vector2(0, 0)
5:1/0/physics_layer_0/angular_velocity = 0.0
6:1/0 = 0
6:1/0/physics_layer_0/linear_velocity = Vector2(0, 0)
6:1/0/physics_layer_0/angular_velocity = 0.0
7:1/0 = 0
7:1/0/physics_layer_0/linear_velocity = Vector2(0, 0)
7:1/0/physics_layer_0/angular_velocity = 0.0
8:1/0 = 0
8:1/0/physics_layer_0/linear_velocity = Vector2(0, 0)
8:1/0/physics_layer_0/angular_velocity = 0.0
9:1/0 = 0
9:1/0/physics_layer_0/linear_velocity = Vector2(0, 0)
9:1/0/physics_layer_0/angular_velocity = 0.0
10:1/0 = 0
10:1/0/physics_layer_0/linear_velocity = Vector2(0, 0)
10:1/0/physics_layer_0/angular_velocity = 0.0
11:1/0 = 0
11:1/0/physics_layer_0/linear_velocity = Vector2(0, 0)
11:1/0/physics_layer_0/angular_velocity = 0.0
12:1/0 = 0
12:1/0/physics_layer_0/linear_velocity = Vector2(0, 0)
12:1/0/physics_layer_0/angular_velocity = 0.0
13:1/0 = 0
13:1/0/physics_layer_0/linear_velocity = Vector2(0, 0)
13:1/0/physics_layer_0/angular_velocity = 0.0
14:1/0 = 0
14:1/0/physics_layer_0/linear_velocity = Vector2(0, 0)
14:1/0/physics_layer_0/angular_velocity = 0.0
15:1/0 = 0
15:1/0/physics_layer_0/linear_velocity = Vector2(0, 0)
15:1/0/physics_layer_0/angular_velocity = 0.0
16:1/0 = 0
16:1/0/physics_layer_0/linear_velocity = Vector2(0, 0)
16:1/0/physics_layer_0/angular_velocity = 0.0
17:1/0 = 0
17:1/0/physics_layer_0/linear_velocity = Vector2(0, 0)
17:1/0/physics_layer_0/angular_velocity = 0.0
18:1/0 = 0
18:1/0/physics_layer_0/linear_velocity = Vector2(0, 0)
18:1/0/physics_layer_0/angular_velocity = 0.0
19:1/0 = 0
19:1/0/physics_layer_0/linear_velocity = Vector2(0, 0)
19:1/0/physics_layer_0/angular_velocity = 0.0
0:2/0 = 0
0:2/0/physics_layer_0/linear_velocity = Vector2(0, 0)
0:2/0/physics_layer_0/angular_velocity = 0.0
1:2/0 = 0
1:2/0/physics_layer_0/linear_velocity = Vector2(0, 0)
1:2/0/physics_layer_0/angular_velocity = 0.0
2:2/0 = 0
2:2/0/physics_layer_0/linear_velocity = Vector2(0, 0)
2:2/0/physics_layer_0/angular_velocity = 0.0
3:2/0 = 0
3:2/0/physics_layer_0/linear_velocity = Vector2(0, 0)
3:2/0/physics_layer_0/angular_velocity = 0.0
4:2/0 = 0
4:2/0/physics_layer_0/linear_velocity = Vector2(0, 0)
4:2/0/physics_layer_0/angular_velocity = 0.0
5:2/0 = 0
5:2/0/physics_layer_0/linear_velocity = Vector2(0, 0)
5:2/0/physics_layer_0/angular_velocity = 0.0
6:2/0 = 0
6:2/0/physics_layer_0/linear_velocity = Vector2(0, 0)
6:2/0/physics_layer_0/angular_velocity = 0.0
7:2/0 = 0
7:2/0/physics_layer_0/linear_velocity = Vector2(0, 0)
7:2/0/physics_layer_0/angular_velocity = 0.0
8:2/0 = 0
8:2/0/physics_layer_0/linear_velocity = Vector2(0, 0)
8:2/0/physics_layer_0/angular_velocity = 0.0
9:2/0 = 0
9:2/0/physics_layer_0/linear_velocity = Vector2(0, 0)
9:2/0/physics_layer_0/angular_velocity = 0.0
10:2/0 = 0
10:2/0/physics_layer_0/linear_velocity = Vector2(0, 0)
10:2/0/physics_layer_0/angular_velocity = 0.0
11:2/0 = 0
11:2/0/physics_layer_0/linear_velocity = Vector2(0, 0)
11:2/0/physics_layer_0/angular_velocity = 0.0
12:2/0 = 0
12:2/0/physics_layer_0/linear_velocity = Vector2(0, 0)
12:2/0/physics_layer_0/angular_velocity = 0.0
13:2/0 = 0
13:2/0/physics_layer_0/linear_velocity = Vector2(0, 0)
13:2/0/physics_layer_0/angular_velocity = 0.0
14:2/0 = 0
14:2/0/physics_layer_0/linear_velocity = Vector2(0, 0)
14:2/0/physics_layer_0/angular_velocity = 0.0
15:2/0 = 0
15:2/0/physics_layer_0/linear_velocity = Vector2(0, 0)
15:2/0/physics_layer_0/angular_velocity = 0.0
16:2/0 = 0
16:2/0/physics_layer_0/linear_velocity = Vector2(0, 0)
16:2/0/physics_layer_0/angular_velocity = 0.0
17:2/0 = 0
17:2/0/physics_layer_0/linear_velocity = Vector2(0, 0)
17:2/0/physics_layer_0/angular_velocity = 0.0
18:2/0 = 0
18:2/0/physics_layer_0/linear_velocity = Vector2(0, 0)
18:2/0/physics_layer_0/angular_velocity = 0.0
19:2/0 = 0
19:2/0/physics_layer_0/linear_velocity = Vector2(0, 0)
19:2/0/physics_layer_0/angular_velocity = 0.0
0:3/0 = 0
0:3/0/physics_layer_0/linear_velocity = Vector2(0, 0)
0:3/0/physics_layer_0/angular_velocity = 0.0
1:3/0 = 0
1:3/0/physics_layer_0/linear_velocity = Vector2(0, 0)
1:3/0/physics_layer_0/angular_velocity = 0.0
2:3/0 = 0
2:3/0/physics_layer_0/linear_velocity = Vector2(0, 0)
2:3/0/physics_layer_0/angular_velocity = 0.0
3:3/0 = 0
3:3/0/physics_layer_0/linear_velocity = Vector2(0, 0)
3:3/0/physics_layer_0/angular_velocity = 0.0
4:3/0 = 0
4:3/0/physics_layer_0/linear_velocity = Vector2(0, 0)
4:3/0/physics_layer_0/angular_velocity = 0.0
5:3/0 = 0
5:3/0/physics_layer_0/linear_velocity = Vector2(0, 0)
5:3/0/physics_layer_0/angular_velocity = 0.0
6:3/0 = 0
6:3/0/physics_layer_0/linear_velocity = Vector2(0, 0)
6:3/0/physics_layer_0/angular_velocity = 0.0
7:3/0 = 0
7:3/0/physics_layer_0/linear_velocity = Vector2(0, 0)
7:3/0/physics_layer_0/angular_velocity = 0.0
8:3/0 = 0
8:3/0/physics_layer_0/linear_velocity = Vector2(0, 0)
8:3/0/physics_layer_0/angular_velocity = 0.0
9:3/0 = 0
9:3/0/physics_layer_0/linear_velocity = Vector2(0, 0)
9:3/0/physics_layer_0/angular_velocity = 0.0
10:3/0 = 0
10:3/0/physics_layer_0/linear_velocity = Vector2(0, 0)
10:3/0/physics_layer_0/angular_velocity = 0.0
11:3/0 = 0
11:3/0/physics_layer_0/linear_velocity = Vector2(0, 0)
11:3/0/physics_layer_0/angular_velocity = 0.0
12:3/0 = 0
12:3/0/physics_layer_0/linear_velocity = Vector2(0, 0)
12:3/0/physics_layer_0/angular_velocity = 0.0
13:3/0 = 0
13:3/0/physics_layer_0/linear_velocity = Vector2(0, 0)
13:3/0/physics_layer_0/angular_velocity = 0.0
14:3/0 = 0
14:3/0/physics_layer_0/linear_velocity = Vector2(0, 0)
14:3/0/physics_layer_0/angular_velocity = 0.0
15:3/0 = 0
15:3/0/physics_layer_0/linear_velocity = Vector2(0, 0)
15:3/0/physics_layer_0/angular_velocity = 0.0
16:3/0 = 0
16:3/0/physics_layer_0/linear_velocity = Vector2(0, 0)
16:3/0/physics_layer_0/angular_velocity = 0.0
17:3/0 = 0
17:3/0/physics_layer_0/linear_velocity = Vector2(0, 0)
17:3/0/physics_layer_0/angular_velocity = 0.0
18:3/0 = 0
18:3/0/physics_layer_0/linear_velocity = Vector2(0, 0)
18:3/0/physics_layer_0/angular_velocity = 0.0
19:3/0 = 0
19:3/0/physics_layer_0/linear_velocity = Vector2(0, 0)
19:3/0/physics_layer_0/angular_velocity = 0.0
0:4/0 = 0
0:4/0/physics_layer_0/linear_velocity = Vector2(0, 0)
0:4/0/physics_layer_0/angular_velocity = 0.0
1:4/0 = 0
1:4/0/physics_layer_0/linear_velocity = Vector2(0, 0)
1:4/0/physics_layer_0/angular_velocity = 0.0
2:4/0 = 0
2:4/0/physics_layer_0/linear_velocity = Vector2(0, 0)
2:4/0/physics_layer_0/angular_velocity = 0.0
3:4/0 = 0
3:4/0/physics_layer_0/linear_velocity = Vector2(0, 0)
3:4/0/physics_layer_0/angular_velocity = 0.0
4:4/0 = 0
4:4/0/physics_layer_0/linear_velocity = Vector2(0, 0)
4:4/0/physics_layer_0/angular_velocity = 0.0
5:4/0 = 0
5:4/0/physics_layer_0/linear_velocity = Vector2(0, 0)
5:4/0/physics_layer_0/angular_velocity = 0.0
6:4/0 = 0
6:4/0/physics_layer_0/linear_velocity = Vector2(0, 0)
6:4/0/physics_layer_0/angular_velocity = 0.0
7:4/0 = 0
7:4/0/physics_layer_0/linear_velocity = Vector2(0, 0)
7:4/0/physics_layer_0/angular_velocity = 0.0
8:4/0 = 0
8:4/0/physics_layer_0/linear_velocity = Vector2(0, 0)
8:4/0/physics_layer_0/angular_velocity = 0.0
9:4/0 = 0
9:4/0/physics_layer_0/linear_velocity = Vector2(0, 0)
9:4/0/physics_layer_0/angular_velocity = 0.0
10:4/0 = 0
10:4/0/physics_layer_0/linear_velocity = Vector2(0, 0)
10:4/0/physics_layer_0/angular_velocity = 0.0
11:4/0 = 0
11:4/0/physics_layer_0/linear_velocity = Vector2(0, 0)
11:4/0/physics_layer_0/angular_velocity = 0.0
12:4/0 = 0
12:4/0/physics_layer_0/linear_velocity = Vector2(0, 0)
12:4/0/physics_layer_0/angular_velocity = 0.0
13:4/0 = 0
13:4/0/physics_layer_0/linear_velocity = Vector2(0, 0)
13:4/0/physics_layer_0/angular_velocity = 0.0
14:4/0 = 0
14:4/0/physics_layer_0/linear_velocity = Vector2(0, 0)
14:4/0/physics_layer_0/angular_velocity = 0.0
15:4/0 = 0
15:4/0/physics_layer_0/linear_velocity = Vector2(0, 0)
15:4/0/physics_layer_0/angular_velocity = 0.0
16:4/0 = 0
16:4/0/physics_layer_0/linear_velocity = Vector2(0, 0)
16:4/0/physics_layer_0/angular_velocity = 0.0
17:4/0 = 0
17:4/0/physics_layer_0/linear_velocity = Vector2(0, 0)
17:4/0/physics_layer_0/angular_velocity = 0.0
18:4/0 = 0
18:4/0/physics_layer_0/linear_velocity = Vector2(0, 0)
18:4/0/physics_layer_0/angular_velocity = 0.0
19:4/0 = 0
19:4/0/physics_layer_0/linear_velocity = Vector2(0, 0)
19:4/0/physics_layer_0/angular_velocity = 0.0
0:5/0 = 0
0:5/0/physics_layer_0/linear_velocity = Vector2(0, 0)
0:5/0/physics_layer_0/angular_velocity = 0.0
1:5/0 = 0
1:5/0/physics_layer_0/linear_velocity = Vector2(0, 0)
1:5/0/physics_layer_0/angular_velocity = 0.0
2:5/0 = 0
2:5/0/physics_layer_0/linear_velocity = Vector2(0, 0)
2:5/0/physics_layer_0/angular_velocity = 0.0
3:5/0 = 0
3:5/0/physics_layer_0/linear_velocity = Vector2(0, 0)
3:5/0/physics_layer_0/angular_velocity = 0.0
4:5/0 = 0
4:5/0/physics_layer_0/linear_velocity = Vector2(0, 0)
4:5/0/physics_layer_0/angular_velocity = 0.0
5:5/0 = 0
5:5/0/physics_layer_0/linear_velocity = Vector2(0, 0)
5:5/0/physics_layer_0/angular_velocity = 0.0
6:5/0 = 0
6:5/0/physics_layer_0/linear_velocity = Vector2(0, 0)
6:5/0/physics_layer_0/angular_velocity = 0.0
7:5/0 = 0
7:5/0/physics_layer_0/linear_velocity = Vector2(0, 0)
7:5/0/physics_layer_0/angular_velocity = 0.0
8:5/0 = 0
8:5/0/physics_layer_0/linear_velocity = Vector2(0, 0)
8:5/0/physics_layer_0/angular_velocity = 0.0
9:5/0 = 0
9:5/0/physics_layer_0/linear_velocity = Vector2(0, 0)
9:5/0/physics_layer_0/angular_velocity = 0.0
10:5/0 = 0
10:5/0/physics_layer_0/linear_velocity = Vector2(0, 0)
10:5/0/physics_layer_0/angular_velocity = 0.0
11:5/0 = 0
11:5/0/physics_layer_0/linear_velocity = Vector2(0, 0)
11:5/0/physics_layer_0/angular_velocity = 0.0
12:5/0 = 0
12:5/0/physics_layer_0/linear_velocity = Vector2(0, 0)
12:5/0/physics_layer_0/angular_velocity = 0.0
13:5/0 = 0
13:5/0/physics_layer_0/linear_velocity = Vector2(0, 0)
13:5/0/physics_layer_0/angular_velocity = 0.0
14:5/0 = 0
14:5/0/physics_layer_0/linear_velocity = Vector2(0, 0)
14:5/0/physics_layer_0/angular_velocity = 0.0
15:5/0 = 0
15:5/0/physics_layer_0/linear_velocity = Vector2(0, 0)
15:5/0/physics_layer_0/angular_velocity = 0.0
16:5/0 = 0
16:5/0/physics_layer_0/linear_velocity = Vector2(0, 0)
16:5/0/physics_layer_0/angular_velocity = 0.0
17:5/0 = 0
17:5/0/physics_layer_0/linear_velocity = Vector2(0, 0)
17:5/0/physics_layer_0/angular_velocity = 0.0
18:5/0 = 0
18:5/0/physics_layer_0/linear_velocity = Vector2(0, 0)
18:5/0/physics_layer_0/angular_velocity = 0.0
19:5/0 = 0
19:5/0/physics_layer_0/linear_velocity = Vector2(0, 0)
19:5/0/physics_layer_0/angular_velocity = 0.0
0:6/0 = 0
0:6/0/physics_layer_0/linear_velocity = Vector2(0, 0)
0:6/0/physics_layer_0/angular_velocity = 0.0
1:6/0 = 0
1:6/0/physics_layer_0/linear_velocity = Vector2(0, 0)
1:6/0/physics_layer_0/angular_velocity = 0.0
2:6/0 = 0
2:6/0/physics_layer_0/linear_velocity = Vector2(0, 0)
2:6/0/physics_layer_0/angular_velocity = 0.0
3:6/0 = 0
3:6/0/physics_layer_0/linear_velocity = Vector2(0, 0)
3:6/0/physics_layer_0/angular_velocity = 0.0
4:6/0 = 0
4:6/0/physics_layer_0/linear_velocity = Vector2(0, 0)
4:6/0/physics_layer_0/angular_velocity = 0.0
5:6/0 = 0
5:6/0/physics_layer_0/linear_velocity = Vector2(0, 0)
5:6/0/physics_layer_0/angular_velocity = 0.0
6:6/0 = 0
6:6/0/physics_layer_0/linear_velocity = Vector2(0, 0)
6:6/0/physics_layer_0/angular_velocity = 0.0
7:6/0 = 0
7:6/0/physics_layer_0/linear_velocity = Vector2(0, 0)
7:6/0/physics_layer_0/angular_velocity = 0.0
8:6/0 = 0
8:6/0/physics_layer_0/linear_velocity = Vector2(0, 0)
8:6/0/physics_layer_0/angular_velocity = 0.0
9:6/0 = 0
9:6/0/physics_layer_0/linear_velocity = Vector2(0, 0)
9:6/0/physics_layer_0/angular_velocity = 0.0
10:6/0 = 0
10:6/0/physics_layer_0/linear_velocity = Vector2(0, 0)
10:6/0/physics_layer_0/angular_velocity = 0.0
11:6/0 = 0
11:6/0/physics_layer_0/linear_velocity = Vector2(0, 0)
11:6/0/physics_layer_0/angular_velocity = 0.0
12:6/0 = 0
12:6/0/physics_layer_0/linear_velocity = Vector2(0, 0)
12:6/0/physics_layer_0/angular_velocity = 0.0
13:6/0 = 0
13:6/0/physics_layer_0/linear_velocity = Vector2(0, 0)
13:6/0/physics_layer_0/angular_velocity = 0.0
14:6/0 = 0
14:6/0/physics_layer_0/linear_velocity = Vector2(0, 0)
14:6/0/physics_layer_0/angular_velocity = 0.0
15:6/0 = 0
15:6/0/physics_layer_0/linear_velocity = Vector2(0, 0)
15:6/0/physics_layer_0/angular_velocity = 0.0
16:6/0 = 0
16:6/0/physics_layer_0/linear_velocity = Vector2(0, 0)
16:6/0/physics_layer_0/angular_velocity = 0.0
17:6/0 = 0
17:6/0/physics_layer_0/linear_velocity = Vector2(0, 0)
17:6/0/physics_layer_0/angular_velocity = 0.0
18:6/0 = 0
18:6/0/physics_layer_0/linear_velocity = Vector2(0, 0)
18:6/0/physics_layer_0/angular_velocity = 0.0
19:6/0 = 0
19:6/0/physics_layer_0/linear_velocity = Vector2(0, 0)
19:6/0/physics_layer_0/angular_velocity = 0.0
0:7/0 = 0
0:7/0/physics_layer_0/linear_velocity = Vector2(0, 0)
0:7/0/physics_layer_0/angular_velocity = 0.0
1:7/0 = 0
1:7/0/physics_layer_0/linear_velocity = Vector2(0, 0)
1:7/0/physics_layer_0/angular_velocity = 0.0
2:7/0 = 0
2:7/0/physics_layer_0/linear_velocity = Vector2(0, 0)
2:7/0/physics_layer_0/angular_velocity = 0.0
3:7/0 = 0
3:7/0/physics_layer_0/linear_velocity = Vector2(0, 0)
3:7/0/physics_layer_0/angular_velocity = 0.0
4:7/0 = 0
4:7/0/physics_layer_0/linear_velocity = Vector2(0, 0)
4:7/0/physics_layer_0/angular_velocity = 0.0
5:7/0 = 0
5:7/0/physics_layer_0/linear_velocity = Vector2(0, 0)
5:7/0/physics_layer_0/angular_velocity = 0.0
6:7/0 = 0
6:7/0/physics_layer_0/linear_velocity = Vector2(0, 0)
6:7/0/physics_layer_0/angular_velocity = 0.0
7:7/0 = 0
7:7/0/physics_layer_0/linear_velocity = Vector2(0, 0)
7:7/0/physics_layer_0/angular_velocity = 0.0
8:7/0 = 0
8:7/0/physics_layer_0/linear_velocity = Vector2(0, 0)
8:7/0/physics_layer_0/angular_velocity = 0.0
9:7/0 = 0
9:7/0/physics_layer_0/linear_velocity = Vector2(0, 0)
9:7/0/physics_layer_0/angular_velocity = 0.0
10:7/0 = 0
10:7/0/physics_layer_0/linear_velocity = Vector2(0, 0)
10:7/0/physics_layer_0/angular_velocity = 0.0
11:7/0 = 0
11:7/0/physics_layer_0/linear_velocity = Vector2(0, 0)
11:7/0/physics_layer_0/angular_velocity = 0.0
12:7/0 = 0
12:7/0/physics_layer_0/linear_velocity = Vector2(0, 0)
12:7/0/physics_layer_0/angular_velocity = 0.0
13:7/0 = 0
13:7/0/physics_layer_0/linear_velocity = Vector2(0, 0)
13:7/0/physics_layer_0/angular_velocity = 0.0
14:7/0 = 0
14:7/0/physics_layer_0/linear_velocity = Vector2(0, 0)
14:7/0/physics_layer_0/angular_velocity = 0.0
15:7/0 = 0
15:7/0/physics_layer_0/linear_velocity = Vector2(0, 0)
15:7/0/physics_layer_0/angular_velocity = 0.0
16:7/0 = 0
16:7/0/physics_layer_0/linear_velocity = Vector2(0, 0)
16:7/0/physics_layer_0/angular_velocity = 0.0
17:7/0 = 0
17:7/0/physics_layer_0/linear_velocity = Vector2(0, 0)
17:7/0/physics_layer_0/angular_velocity = 0.0
18:7/0 = 0
18:7/0/physics_layer_0/linear_velocity = Vector2(0, 0)
18:7/0/physics_layer_0/angular_velocity = 0.0
19:7/0 = 0
19:7/0/physics_layer_0/linear_velocity = Vector2(0, 0)
19:7/0/physics_layer_0/angular_velocity = 0.0
0:8/0 = 0
0:8/0/physics_layer_0/linear_velocity = Vector2(0, 0)
0:8/0/physics_layer_0/angular_velocity = 0.0
1:8/0 = 0
1:8/0/physics_layer_0/linear_velocity = Vector2(0, 0)
1:8/0/physics_layer_0/angular_velocity = 0.0
2:8/0 = 0
2:8/0/physics_layer_0/linear_velocity = Vector2(0, 0)
2:8/0/physics_layer_0/angular_velocity = 0.0
3:8/0 = 0
3:8/0/physics_layer_0/linear_velocity = Vector2(0, 0)
3:8/0/physics_layer_0/angular_velocity = 0.0
4:8/0 = 0
4:8/0/physics_layer_0/linear_velocity = Vector2(0, 0)
4:8/0/physics_layer_0/angular_velocity = 0.0
5:8/0 = 0
5:8/0/physics_layer_0/linear_velocity = Vector2(0, 0)
5:8/0/physics_layer_0/angular_velocity = 0.0
6:8/0 = 0
6:8/0/physics_layer_0/linear_velocity = Vector2(0, 0)
6:8/0/physics_layer_0/angular_velocity = 0.0
7:8/0 = 0
7:8/0/physics_layer_0/linear_velocity = Vector2(0, 0)
7:8/0/physics_layer_0/angular_velocity = 0.0
8:8/0 = 0
8:8/0/physics_layer_0/linear_velocity = Vector2(0, 0)
8:8/0/physics_layer_0/angular_velocity = 0.0
9:8/0 = 0
9:8/0/physics_layer_0/linear_velocity = Vector2(0, 0)
9:8/0/physics_layer_0/angular_velocity = 0.0
10:8/0 = 0
10:8/0/physics_layer_0/linear_velocity = Vector2(0, 0)
10:8/0/physics_layer_0/angular_velocity = 0.0
11:8/0 = 0
11:8/0/physics_layer_0/linear_velocity = Vector2(0, 0)
11:8/0/physics_layer_0/angular_velocity = 0.0
12:8/0 = 0
12:8/0/physics_layer_0/linear_velocity = Vector2(0, 0)
12:8/0/physics_layer_0/angular_velocity = 0.0
13:8/0 = 0
13:8/0/physics_layer_0/linear_velocity = Vector2(0, 0)
13:8/0/physics_layer_0/angular_velocity = 0.0
14:8/0 = 0
14:8/0/physics_layer_0/linear_velocity = Vector2(0, 0)
14:8/0/physics_layer_0/angular_velocity = 0.0
15:8/0 = 0
15:8/0/physics_layer_0/linear_velocity = Vector2(0, 0)
15:8/0/physics_layer_0/angular_velocity = 0.0
16:8/0 = 0
16:8/0/physics_layer_0/linear_velocity = Vector2(0, 0)
16:8/0/physics_layer_0/angular_velocity = 0.0
17:8/0 = 0
17:8/0/physics_layer_0/linear_velocity = Vector2(0, 0)
17:8/0/physics_layer_0/angular_velocity = 0.0
18:8/0 = 0
18:8/0/physics_layer_0/linear_velocity = Vector2(0, 0)
18:8/0/physics_layer_0/angular_velocity = 0.0
19:8/0 = 0
19:8/0/physics_layer_0/linear_velocity = Vector2(0, 0)
19:8/0/physics_layer_0/angular_velocity = 0.0

[sub_resource type="TileSet" id="TileSet_r7trf"]
tile_size = Vector2i(18, 18)
physics_layer_0/collision_layer = 1
physics_layer_0/physics_material = SubResource("PhysicsMaterial_cxt82")
sources/0 = SubResource("TileSetAtlasSource_2m4ys")

[node name="Main" type="Node2D"]
scale = Vector2(1.01619, 0.985361)

[node name="TileMap" type="TileMap" parent="."]
position = Vector2(-269.778, -6.17456)
tile_set = SubResource("TileSet_r7trf")
format = 2
layer_0/tile_data = PackedInt32Array(-65535, 131072, 1, -65534, 131072, 1, -65533, 131072, 1, -131068, 131072, 1, -196603, 131072, 1, -262138, 131072, 1, -65532, 131072, 6, -65531, 131072, 6, -131067, 131072, 6, -131066, 131072, 6, -196602, 131072, 6, -262137, 131072, 1, -262136, 131072, 1, -262135, 131072, 1, -262134, 131072, 1, -196601, 131072, 6, -196600, 131072, 6, -196599, 131072, 6, -196598, 131072, 6, -131062, 131072, 6, -131063, 131072, 6, -131064, 131072, 6, -131065, 131072, 6, -65529, 131072, 6, -65530, 131072, 6, -65528, 131072, 6, -65527, 131072, 6, -65526, 131072, 6)

[node name="Coin" parent="." instance=ExtResource("3_78v5b")]
position = Vector2(-227.778, -37.1746)

[node name="CharacterBody2D" parent="." instance=ExtResource("2_mxopq")]
position = Vector2(-139.778, -94.1746)

[node name="MovablePlatform" parent="." instance=ExtResource("4_03q7t")]
position = Vector2(-260.778, -90.3222)
