[gd_scene load_steps=4 format=3 uid="uid://crcnyho42libs"]

[ext_resource type="Script" path="res://plataforma.gd" id="1_nyppj"]
[ext_resource type="Texture2D" uid="uid://bnuiq0gfp30qj" path="res://Sprites/Platform.png" id="1_wlxhm"]

[sub_resource type="RectangleShape2D" id="RectangleShape2D_qu47o"]
size = Vector2(110, 20)

[node name="Plataforma" type="Area2D"]
scale = Vector2(0.2, 0.48)
script = ExtResource("1_nyppj")

[node name="CollisionShape2D" type="CollisionShape2D" parent="."]
position = Vector2(5.96047e-07, -2.08333)
shape = SubResource("RectangleShape2D_qu47o")

[node name="Sprite2D" type="Sprite2D" parent="."]
position = Vector2(0, -2.08333)
scale = Vector2(0.199999, 0.333333)
texture = ExtResource("1_wlxhm")

[connection signal="body_entered" from="." to="." method="_on_body_entered"]
